^D:\BITBUCKET\SUPPLYMANAGEMENTLITEMK1\SUPPLYMANAGEMENTLITEMK1\BENEFITSMANAGEMENT\FORMBENEFITSMANAGEMENT.RESX
C:\WINDOWS\ASSEMBLY\PUBPOL39.DAT
^D:\BITBUCKET\SUPPLYMANAGEMENTLITEMK1\SUPPLYMANAGEMENTLITEMK1\CLIENTMANAGEMENT\FORMCLIENTMANAGEMENT.RESX
^D:\BITBUCKET\SUPPLYMANAGEMENTLITEMK1\SUPPLYMANAGEMENTLITEMK1\CLIENTMANAGEMENT\FORMEDITTIERS.RESX
^D:\BITBUCKET\SUPPLYMANAGEMENTLITEMK1\SUPPLYMANAGEMENTLITEMK1\CONNECTIONMANAGEMENT\FORMCONNECTIONSETUP.RESX
^D:\BITBUCKET\SUPPLYMANAGEMENTLITEMK1\SUPPLYMANAGEMENTLITEMK1\INPUTMANAGEMENT\FORMEDITINPUTAMOUNT.RESX
^D:\BITBUCKET\SUPPLYMANAGEMENTLITEMK1\SUPPLYMANAGEMENTLITEMK1\MAINAPP\FORMSPLASH.RESX
^D:\BITBUCKET\SUPPLYMANAGEMENTLITEMK1\SUPPLYMANAGEMENTLITEMK1\MISC\FORMBROWSEUNITS.RESX
^D:\BITBUCKET\SUPPLYMANAGEMENTLITEMK1\SUPPLYMANAGEMENTLITEMK1\OUTPUTMANAGEMENT\FORMEDITOUTPUTAMOUNT.RESX
^D:\BITBUCKET\SUPPLYMANAGEMENTLITEMK1\SUPPLYMANAGEMENTLITEMK1\PROFILEMANAGEMENT\FORMEDITPROFILE.RESX
^D:\BITBUCKET\SUPPLYMANAGEMENTLITEMK1\SUPPLYMANAGEMENTLITEMK1\PROFILEMANAGEMENT\FORMPROFILEMANAGEMENT.RESX
^D:\BITBUCKET\SUPPLYMANAGEMENTLITEMK1\SUPPLYMANAGEMENTLITEMK1\PROFILEMANAGEMENT\FORMLOGIN.RESX
^D:\BITBUCKET\SUPPLYMANAGEMENTLITEMK1\SUPPLYMANAGEMENTLITEMK1\STOCKMANAGEMENT\FORMEDITSTOCK2.RESX
^D:\BITBUCKET\SUPPLYMANAGEMENTLITEMK1\SUPPLYMANAGEMENTLITEMK1\STOCKMANAGEMENT\FORMEDITSTOCK.RESX
^D:\BITBUCKET\SUPPLYMANAGEMENTLITEMK1\SUPPLYMANAGEMENTLITEMK1\STOCKMANAGEMENT\FORMEDITUNITSTOCK.RESX
^D:\BITBUCKET\SUPPLYMANAGEMENTLITEMK1\SUPPLYMANAGEMENTLITEMK1\STORYMANAGEMENT\FORMCLEARDATABASE.RESX
^D:\BITBUCKET\SUPPLYMANAGEMENTLITEMK1\SUPPLYMANAGEMENTLITEMK1\STORYMANAGEMENT\FORMCLEARSTORY.RESX
^D:\BITBUCKET\SUPPLYMANAGEMENTLITEMK1\SUPPLYMANAGEMENTLITEMK1\STORYMANAGEMENT\FORMPAYOUTPUT.RESX
^D:\BITBUCKET\SUPPLYMANAGEMENTLITEMK1\SUPPLYMANAGEMENTLITEMK1\STORYMANAGEMENT\FORMPAYINPUT.RESX
^D:\BITBUCKET\SUPPLYMANAGEMENTLITEMK1\SUPPLYMANAGEMENTLITEMK1\INPUTMANAGEMENT\FORMEDITINPUTSTOCK.RESX
^D:\BITBUCKET\SUPPLYMANAGEMENTLITEMK1\SUPPLYMANAGEMENTLITEMK1\INPUTMANAGEMENT\FORMINPUTMANAGEMENT.RESX
^D:\BITBUCKET\SUPPLYMANAGEMENTLITEMK1\SUPPLYMANAGEMENTLITEMK1\MAINAPP\FORMABOUT.RESX
^D:\BITBUCKET\SUPPLYMANAGEMENTLITEMK1\SUPPLYMANAGEMENTLITEMK1\MAINAPP\FORMMAIN.RESX
^D:\BITBUCKET\SUPPLYMANAGEMENTLITEMK1\SUPPLYMANAGEMENTLITEMK1\MAINAPP\FORMMENU.RESX
^D:\BITBUCKET\SUPPLYMANAGEMENTLITEMK1\SUPPLYMANAGEMENTLITEMK1\MISC\FORMSECRETCODE.RESX
^D:\BITBUCKET\SUPPLYMANAGEMENTLITEMK1\SUPPLYMANAGEMENTLITEMK1\OUTPUTMANAGEMENT\FORMEDITOUTPUTSTOCK.RESX
^D:\BITBUCKET\SUPPLYMANAGEMENTLITEMK1\SUPPLYMANAGEMENTLITEMK1\OUTPUTMANAGEMENT\FORMOUTPUTMANAGEMENT.RESX
^D:\BITBUCKET\SUPPLYMANAGEMENTLITEMK1\SUPPLYMANAGEMENTLITEMK1\PROPERTIES\RESOURCES.RESX
D:\BITBUCKET\SUPPLYMANAGEMENTLITEMK1\SUPPLYMANAGEMENTLITEMK1\RESOURCES\ABOUTIMG.PNG
D:\BITBUCKET\SUPPLYMANAGEMENTLITEMK1\SUPPLYMANAGEMENTLITEMK1\RESOURCES\OUTPUT.PNG
D:\BITBUCKET\SUPPLYMANAGEMENTLITEMK1\SUPPLYMANAGEMENTLITEMK1\RESOURCES\BANNER.PNG
D:\BITBUCKET\SUPPLYMANAGEMENTLITEMK1\SUPPLYMANAGEMENTLITEMK1\RESOURCES\CONNECTIONOK.JPG
D:\BITBUCKET\SUPPLYMANAGEMENTLITEMK1\SUPPLYMANAGEMENTLITEMK1\RESOURCES\ICONRED_TINY.PNG
D:\BITBUCKET\SUPPLYMANAGEMENTLITEMK1\SUPPLYMANAGEMENTLITEMK1\RESOURCES\LOCK_LOCKED.PNG
D:\BITBUCKET\SUPPLYMANAGEMENTLITEMK1\SUPPLYMANAGEMENTLITEMK1\RESOURCES\ICONGREEN.PNG
D:\BITBUCKET\SUPPLYMANAGEMENTLITEMK1\SUPPLYMANAGEMENTLITEMK1\RESOURCES\INPUT.PNG
D:\BITBUCKET\SUPPLYMANAGEMENTLITEMK1\SUPPLYMANAGEMENTLITEMK1\RESOURCES\ICONRED.PNG
D:\BITBUCKET\SUPPLYMANAGEMENTLITEMK1\SUPPLYMANAGEMENTLITEMK1\RESOURCES\INPUTOUTPUT.PNG
D:\BITBUCKET\SUPPLYMANAGEMENTLITEMK1\SUPPLYMANAGEMENTLITEMK1\RESOURCES\LOCK_OPEN.PNG
D:\BITBUCKET\SUPPLYMANAGEMENTLITEMK1\SUPPLYMANAGEMENTLITEMK1\RESOURCES\ICONGREEN_TINY.PNG
D:\BITBUCKET\SUPPLYMANAGEMENTLITEMK1\SUPPLYMANAGEMENTLITEMK1\RESOURCES\SEARCH_TINY.JPG
D:\BITBUCKET\SUPPLYMANAGEMENTLITEMK1\SUPPLYMANAGEMENTLITEMK1\RESOURCES\BENEFITS.PNG
D:\BITBUCKET\SUPPLYMANAGEMENTLITEMK1\SUPPLYMANAGEMENTLITEMK1\RESOURCES\ICONBLUE.PNG
D:\BITBUCKET\SUPPLYMANAGEMENTLITEMK1\SUPPLYMANAGEMENTLITEMK1\RESOURCES\ICONWHITE.PNG
D:\BITBUCKET\SUPPLYMANAGEMENTLITEMK1\SUPPLYMANAGEMENTLITEMK1\RESOURCES\CONNECTIONNEUTRAL.JPG
D:\BITBUCKET\SUPPLYMANAGEMENTLITEMK1\SUPPLYMANAGEMENTLITEMK1\RESOURCES\STOCK.PNG
D:\BITBUCKET\SUPPLYMANAGEMENTLITEMK1\SUPPLYMANAGEMENTLITEMK1\RESOURCES\CONNECTIONFAILED.JPG
D:\BITBUCKET\SUPPLYMANAGEMENTLITEMK1\SUPPLYMANAGEMENTLITEMK1\RESOURCES\ICONYELLOW_TINY.PNG
D:\BITBUCKET\SUPPLYMANAGEMENTLITEMK1\SUPPLYMANAGEMENTLITEMK1\RESOURCES\WELCOMEADMINBCG.JPG
D:\BITBUCKET\SUPPLYMANAGEMENTLITEMK1\SUPPLYMANAGEMENTLITEMK1\RESOURCES\ICONYELLOW.PNG
D:\BITBUCKET\SUPPLYMANAGEMENTLITEMK1\SUPPLYMANAGEMENTLITEMK1\RESOURCES\SPLASH1.PNG
^D:\BITBUCKET\SUPPLYMANAGEMENTLITEMK1\SUPPLYMANAGEMENTLITEMK1\STOCKMANAGEMENT\FORMSTOCKMANAGEMENT.RESX
^D:\BITBUCKET\SUPPLYMANAGEMENTLITEMK1\SUPPLYMANAGEMENTLITEMK1\STORYMANAGEMENT\CTRLALLSTORYINPUTGOODS.RESX
^D:\BITBUCKET\SUPPLYMANAGEMENTLITEMK1\SUPPLYMANAGEMENTLITEMK1\STORYMANAGEMENT\CTRLALLSTORYOUTPUTGOODS.RESX
^D:\BITBUCKET\SUPPLYMANAGEMENTLITEMK1\SUPPLYMANAGEMENTLITEMK1\STORYMANAGEMENT\CTRLCLEARSTORIES.RESX
^D:\BITBUCKET\SUPPLYMANAGEMENTLITEMK1\SUPPLYMANAGEMENTLITEMK1\STORYMANAGEMENT\CTRLSTORYINPUTGOODS.RESX
^D:\BITBUCKET\SUPPLYMANAGEMENTLITEMK1\SUPPLYMANAGEMENTLITEMK1\STORYMANAGEMENT\CTRLSTORYOUTPUTGOODS.RESX
^D:\BITBUCKET\SUPPLYMANAGEMENTLITEMK1\SUPPLYMANAGEMENTLITEMK1\STORYMANAGEMENT\FORMSTORYMANAGEMENT.RESX
^D:\BITBUCKET\SUPPLYMANAGEMENTLITEMK1\SUPPLYMANAGEMENTLITEMK1\SUPPLIERMANAGEMENT\FORMEDITSUPPLIER.RESX
^D:\BITBUCKET\SUPPLYMANAGEMENTLITEMK1\SUPPLYMANAGEMENTLITEMK1\SUPPLIERMANAGEMENT\FORMSUPPLIERMANAGEMENT.RESX
